<?xml version="1.0" encoding="UTF-8" standalone="no"?>
<svg
   xmlns:dc="http://purl.org/dc/elements/1.1/"
   xmlns:cc="http://creativecommons.org/ns#"
   xmlns:rdf="http://www.w3.org/1999/02/22-rdf-syntax-ns#"
   xmlns:svg="http://www.w3.org/2000/svg"
   xmlns="http://www.w3.org/2000/svg"
   xmlns:sodipodi="http://sodipodi.sourceforge.net/DTD/sodipodi-0.dtd"
   xmlns:inkscape="http://www.inkscape.org/namespaces/inkscape"
   width="57.195675mm"
   height="34.742737mm"
   viewBox="0 0 57.195675 34.742737"
   version="1.1"
   id="svg8"
   inkscape:version="1.0.2-2 (e86c870879, 2021-01-15)"
   sodipodi:docname="robot.svg">
  <defs
     id="defs2" />
  <sodipodi:namedview
     id="base"
     pagecolor="#ffffff"
     bordercolor="#666666"
     borderopacity="1.0"
     inkscape:pageopacity="0.0"
     inkscape:pageshadow="2"
     inkscape:zoom="1.4"
     inkscape:cx="66.85639"
     inkscape:cy="131.25261"
     inkscape:document-units="mm"
     inkscape:current-layer="g869"
     inkscape:document-rotation="0"
     showgrid="false"
     fit-margin-top="0"
     fit-margin-left="0"
     fit-margin-right="0"
     fit-margin-bottom="0"
     inkscape:window-width="3440"
     inkscape:window-height="1387"
     inkscape:window-x="-8"
     inkscape:window-y="-8"
     inkscape:window-maximized="1" />
  <metadata
     id="metadata5">
    <rdf:RDF>
      <cc:Work
         rdf:about="">
        <dc:format>image/svg+xml</dc:format>
        <dc:type
           rdf:resource="http://purl.org/dc/dcmitype/StillImage" />
        <dc:title></dc:title>
      </cc:Work>
    </rdf:RDF>
  </metadata>
  <g
     inkscape:label="Layer 1"
     inkscape:groupmode="layer"
     id="layer1"
     style="display:inline"
     transform="translate(-42.495853,-71.630539)">
    <g
       id="g869">
      <rect
         style="fill:#aaaaaa;fill-opacity:1;fill-rule:evenodd;stroke-width:0.264583"
         id="rect10"
         width="57.195675"
         height="26.994225"
         x="42.495853"
         y="71.630539"
         ry="5.6126599" />
      <rect
         style="fill:#aaaaaa;fill-opacity:1;fill-rule:evenodd;stroke-width:0.4386"
         id="rect34"
         width="23.906992"
         height="21.292753"
         x="59.140194"
         y="85.080521"
         ry="0"
         rx="0" />
    </g>
    <g
       id="g42"
       transform="translate(-0.80181122,-7.6148643)"
       style="stroke:#646462;stroke-width:2;stroke-miterlimit:4;stroke-dasharray:none;stroke-opacity:1">
      <circle
         style="fill:#ffffff;fill-opacity:1;fill-rule:evenodd;stroke:#646464;stroke-width:2;stroke-miterlimit:4;stroke-dasharray:none;stroke-opacity:1"
         id="path12"
         cx="58.932926"
         cy="92.742516"
         r="5.2117558" />
      <circle
         style="display:inline;fill:#ffffff;fill-opacity:1;fill-rule:evenodd;stroke:#646464;stroke-width:2;stroke-miterlimit:4;stroke-dasharray:none;stroke-opacity:1"
         id="path12-7"
         cx="84.858078"
         cy="92.742516"
         r="5.2117558" />
    </g>
  </g>
</svg>
